%YAML 1.1
%TAG !u! tag:unity3d.com,2011:
--- !u!21 &2100000
Material:
  serializedVersion: 6
  m_ObjectHideFlags: 0
  m_PrefabParentObject: {fileID: 0}
  m_PrefabInternal: {fileID: 0}
  m_Name: Astronaut
  m_Shader: {fileID: 4800000, guid: 81dfaf7770b4b4751b7c4e6b480ea503, type: 3}
  m_ShaderKeywords: 
  m_LightmapFlags: 5
  m_CustomRenderQueue: 2000
  stringTagMap: {}
  m_SavedProperties:
    serializedVersion: 2
    m_TexEnvs:
      data:
        first:
          name: _MainTex
        second:
          m_Texture: {fileID: 2800000, guid: adf9f5eb0f248224fba2e0aea0e6e27f, type: 3}
          m_Scale: {x: 1, y: 1}
          m_Offset: {x: 0, y: 0}
      data:
        first:
          name: _BumpMap
        second:
          m_Texture: {fileID: 0}
          m_Scale: {x: 1, y: 1}
          m_Offset: {x: 0, y: 0}
      data:
        first:
          name: _DetailNormalMap
        second:
          m_Texture: {fileID: 0}
          m_Scale: {x: 1, y: 1}
          m_Offset: {x: 0, y: 0}
      data:
        first:
          name: _ParallaxMap
        second:
          m_Texture: {fileID: 0}
          m_Scale: {x: 1, y: 1}
          m_Offset: {x: 0, y: 0}
      data:
        first:
          name: _OcclusionMap
        second:
          m_Texture: {fileID: 0}
          m_Scale: {x: 1, y: 1}
          m_Offset: {x: 0, y: 0}
      data:
        first:
          name: _EmissionMap
        second:
          m_Texture: {fileID: 0}
          m_Scale: {x: 1, y: 1}
          m_Offset: {x: 0, y: 0}
      data:
        first:
          name: _DetailMask
        second:
          m_Texture: {fileID: 0}
          m_Scale: {x: 1, y: 1}
          m_Offset: {x: 0, y: 0}
      data:
        first:
          name: _DetailAlbedoMap
        second:
          m_Texture: {fileID: 0}
          m_Scale: {x: 1, y: 1}
          m_Offset: {x: 0, y: 0}
      data:
        first:
          name: _MetallicGlossMap
        second:
          m_Texture: {fileID: 0}
          m_Scale: {x: 1, y: 1}
          m_Offset: {x: 0, y: 0}
    m_Floats:
      data:
        first:
          name: _SrcBlend
        second: 1
      data:
        first:
          name: _DstBlend
        second: 0
      data:
        first:
          name: _Cutoff
        second: 0.5
      data:
        first:
          name: _Parallax
        second: 0.02
      data:
        first:
          name: _ZWrite
        second: 1
      data:
        first:
          name: _Glossiness
        second: 0.5
      data:
        first:
          name: _BumpScale
        second: 1
      data:
        first:
          name: _OcclusionStrength
        second: 1
      data:
        first:
          name: _DetailNormalMapScale
        second: 1
      data:
        first:
          name: _UVSec
        second: 0
      data:
        first:
          name: _Mode
        second: 0
      data:
        first:
          name: _Metallic
        second: 0
      data:
        first:
          name: _RimPower
        second: 0.8
      data:
        first:
          name: _AmbientPower
        second: 0.2
      data:
        first:
          name: _LightmapPower
        second: 1
      data:
        first:
          name: _ShadowPower
        second: 0
      data:
        first:
          name: _UseLightMap
        second: 0
      data:
        first:
          name: _UseDirLight
        second: 0
    m_Colors:
      data:
        first:
          name: _EmissionColor
        second: {r: 0, g: 0, b: 0, a: 1}
      data:
        first:
          name: _Color
        second: {r: 1, g: 1, b: 1, a: 1}
      data:
        first:
          name: _RimColor
        second: {r: 0.50735295, g: 0.50735295, b: 0.50735295, a: 0}
      data:
        first:
          name: _LightTint
        second: {r: 1, g: 1, b: 1, a: 0}
      data:
        first:
          name: _AmbientColor
        second: {r: 0.8235294, g: 0.8235294, b: 0.8235294, a: 0}
      data:
        first:
          name: _LightmapColor
        second: {r: 0, g: 0, b: 0, a: 0}
      data:
        first:
          name: _LightDirF
        second: {r: 0, g: 0, b: -1, a: 1}
      data:
        first:
          name: _LightDirT
        second: {r: 0, g: 1, b: 0, a: 1}
      data:
        first:
          name: _LightDirR
        second: {r: 1, g: 0, b: 0, a: 1}
      data:
        first:
          name: _FrontColor
        second: {r: 1, g: 1, b: 1, a: 0}
      data:
        first:
          name: _TopColor
        second: {r: 1, g: 1, b: 1, a: 0}
      data:
        first:
          name: _RightColor
        second: {r: 0.6397059, g: 0.6397059, b: 0.6397059, a: 0}
